{
  "hash": "87cbbd0d3c83e0fc7918a6561c2aa652",
  "result": {
    "engine": "knitr",
    "markdown": "---\ntitle: \"OAI-PMH API\"\nsubtitle: OpenArchives Initiative Protocol for Metadata Harvesting AMČR API\ndate: today\n---\n\n\n\n::: {.callout-note}\n\nAPI is available here: [https://api.aiscr.cz/oai?verb=Identify](https://api.aiscr.cz/oai?verb=Identify){.external}.  \nUser registration is available here: [https://amcr.aiscr.cz/accounts/register/](https://amcr.aiscr.cz/accounts/register/){.external}.  \nThis guide is valid for version 2.0.0 of the service.\n\n:::\n\nOAI-PMH AMČR API hosts *AMČR Data Provider* service providing metadata from the AMČR database using the *OpenArchives Initiative Protocol for Metadata Harvesting* ([OAI-PMH](http://www.openarchives.org/pmh/){.external}).\n\nThe implementation supports two metadata standards:\n\n- [Dublin Core](http://dublincore.org/){.external} -- part of the AMČR data set with metadata on documents and their descriptions,\n- AMČR XML -- native format with a complete representation of the whole AMČR database. \n\n## Access\n\nThe access to some metadata is protected by user roles:\n\n- A (anonymous) -- anyoune on the internet accessing AMČR services,\n- B (researcher) -- registered users,\n- C (archaeologist) -- archaeologist from a licensed organisation,\n- D (archivist) -- AMČR authorized archivist.\n\nRegistration to the system is available here: [https://amcr.aiscr.cz/accounts/register/](https://amcr.aiscr.cz/accounts/register/){.external}.\n\n\n## Specification\n\n### Schema\n\n### Filters\n\n#### State and accessibility of the record\n\n#### Sets\n\n\n\n\n::: {.cell tbl-cap='Available sets'}\n::: {.cell-output-display}\n\n\n|setSpec          |setName                                                             |\n|:----------------|:-------------------------------------------------------------------|\n|projekt          |Projekty / Projects                                                 |\n|akce             |Akce / Fieldwork Events                                             |\n|lokalita         |Lokality / Sites                                                    |\n|dok_jednotka     |Dokumentační jednotky / Descriptive Units                           |\n|adb              |Archeologický dokumentační bod / Archaeological Documentation Point |\n|dokument         |Dokumenty / Documents                                               |\n|soubor           |Soubory / Files                                                     |\n|pian             |PIAN / Spatial Units                                                |\n|ext_zdroj        |Externí zdroje / External Sources                                   |\n|let              |Lety / Flights                                                      |\n|samostatny_nalez |Samostatné nálezy / Individual Finds                                |\n\n\n:::\n:::\n\n\n\n#### Datestamps\n\n\n## Login and authorization\n\n### cURL\n\n### Postman\n\n## OAI-PMH Verbs\n\nOAI-PMH protocol defines several verbs that allow metadata harvesting. \nOAI-PMH specification is available [here](http://www.openarchives.org/OAI/openarchivesprotocol.html){.external}.\n\n### Identify\n\nVerb `Identify` is used to get information about the repository. \n\n*Query:* [https://api.aiscr.cz/oai?verb=Identify](https://api.aiscr.cz/oai?verb=Identify){.external}\n\n*Sample response:*\n\n::: {.small}\n```xml\n<OAI-PMH xsi:schemaLocation=\"http://www.openarchives.org/OAI/2.0/ http://www.openarchives.org/OAI/2.0/OAI-PMH.xsd\">\n  <responseDate>2024-07-11T12:26:50Z</responseDate>\n  <request verb=\"Identify\">http://digiarchiv:8080/oai</request>\n  <Identify>\n    <repositoryName>Archaeological Map of the Czech Republic (AMCR)</repositoryName>\n    <baseURL>https://api.aiscr.cz/oai</baseURL>\n    <protocolVersion>2.0</protocolVersion>\n    <adminEmail>info@amapa.cz</adminEmail>\n    <earliestDatestamp>1990-01-01</earliestDatestamp>\n    <deletedRecord>persistent</deletedRecord>\n    <granularity>YYYY-MM-DDThh:mm:ssZ</granularity>\n    <description>\n      <rightsManifest xsi:schemaLocation=\"http://www.openarchives.org/OAI/2.0/rights/ http://www.openarchives.org/OAI/2.0/rightsManifest.xsd\" appliesTo=\"http://www.openarchives.org/OAI/2.0/entity#metadata\">\n        <rights>\n          <rightsReference ref=\"http://creativecommons.org/licenses/by-nc/4.0/rdf\"/>\n        </rights>\n      </rightsManifest>\n    </description>\n    <description>\n      <oai_dc:dc xsi:schemaLocation=\"http://www.openarchives.org/OAI/2.0/oai_dc/ http://www.openarchives.org/OAI/2.0/oai_dc.xsd\">\n        <dc:title xml:lang=\"cs\">Archeologická mapa České Republiky (AMČR)</dc:title>\n        <dc:title xml:lang=\"en\">Archaeological Map of the Czech Republic (AMCR)</dc:title>\n        [...]\n        <dc:identifier>https://api.aiscr.cz/</dc:identifier>\n        <dc:identifier>version 2.0.0</dc:identifier>\n        [...]\n      </oai_dc:dc>\n    </description>\n  </Identify>\n</OAI-PMH>\n```\n:::\n\n### ListMetadataFormats\n\nVerb `ListMetadataFormats` returns available metadata formats/standards.\n\n*Query:* [https://api.aiscr.cz/oai?verb=ListMetadataFormats](https://api.aiscr.cz/oai?verb=ListMetadataFormats){.external}\n\n*Sample response:*\n\n::: {.small}\n```xml\n<OAI-PMH xsi:schemaLocation=\"http://www.openarchives.org/OAI/2.0/ http://www.openarchives.org/OAI/2.0/OAI-PMH.xsd\">\n  <responseDate>2024-07-11T12:46:31Z</responseDate>\n  <request verb=\"ListMetadataFormats\">http://digiarchiv:8080/oai</request>\n  <ListMetadataFormats>\n    <metadataFormat>\n      <metadataPrefix>oai_dc</metadataPrefix>\n      <schema>http://www.openarchives.org/OAI/2.0/oai_dc.xsd</schema>\n      <metadataNamespace>http://www.openarchives.org/OAI/2.0/oai_dc/</metadataNamespace>\n    </metadataFormat>\n    <metadataFormat>\n      <metadataPrefix>oai_amcr</metadataPrefix>\n      <schema>https://api.aiscr.cz/schema/amcr/2.0/amcr.xsd</schema>\n      <metadataNamespace>https://api.aiscr.cz/schema/amcr/2.0/</metadataNamespace>\n    </metadataFormat>\n  </ListMetadataFormats>\n</OAI-PMH>\n```\n:::\n\nSupported metadata formats are:\n\n- Dublin Core -- `metadataPrefix=oai_dc`, schema available here [http://www.openarchives.org/OAI/2.0/oai_dc.xsd](http://www.openarchives.org/OAI/2.0/oai_dc.xsd){.external},\n- native AMČR *.xml* format -- `metadataPrefix=oai_amcr`, schema available here [https://api.aiscr.cz/schema/amcr/2.0/](https://api.aiscr.cz/schema/amcr/2.0/).\n\n### ListIdentifiers\n\nVerb `ListIdentifiers` lists record headers.\nRequired parameter is `metadataPrefix`, optional arguments allow filtering based on predefined sets (`set`) and/or datestamps (`from`, `until`).\nOnly first page with limited amount of records is returned, to go to the next page, user has to submit a `resumptionToken` returned in the response.\n\n*Query:* [https://api.aiscr.cz/oai?verb=ListIdentifiers&metadataPrefix=oai_amcr](https://api.aiscr.cz/oai?verb=ListIdentifiers&metadataPrefix=oai_amcr){.external}\n\n*Sample response:*\n\n::: {.small}\n```xml\n<OAI-PMH xsi:schemaLocation=\"http://www.openarchives.org/OAI/2.0/ http://www.openarchives.org/OAI/2.0/OAI-PMH.xsd\">\n  <responseDate>2024-07-11T12:51:03Z</responseDate>\n  <request verb=\"ListIdentifiers\" metadataPrefix=\"oai_amcr\">http://digiarchiv:8080/oai</request>\n  <ListIdentifiers>\n    <record>\n      <header>\n        <identifier>https://api-test.aiscr.cz/id/C-202013149</identifier>\n        <datestamp>2024-07-11T12:27:13.968Z</datestamp>\n        <setSpec>projekt</setSpec>\n      </header>\n    </record>\n    <record>\n      <header>\n        <identifier>https://api-test.aiscr.cz/id/P-0334-000377</identifier>\n        <datestamp>2024-07-11T12:12:19.386Z</datestamp>\n        <setSpec>pian</setSpec>\n      </header>\n    </record>\n    <record>\n      <header>\n        <identifier>https://api-test.aiscr.cz/id/C-DL-200400209</identifier>\n        <datestamp>2024-07-11T12:10:48.403Z</datestamp>\n        <setSpec>dokument</setSpec>\n      </header>\n    </record>\n    [...]\n    <resumptionToken completeListSize=\"859142\" cursor=\"0\">8F37FA46A1BE68D815CAE66EDFD7EE64</resumptionToken>\n  </ListIdentifiers>\n</OAI-PMH>\n```\n:::\n\n### ListRecords\n\nVerb `ListRecords` lists records.\nRequired parameter is `metadataPrefix`, optional arguments allow filtering based on predefined sets (`set`) and/or datestamps (`from`, `until`).\nOnly first page with limited amount of records is returned, to go to the next page, user has to submit a `resumptionToken` returned in the response.\n\n*Query:* [https://api.aiscr.cz/oai?verb=ListRecords&metadataPrefix=oai_dc](https://api.aiscr.cz/oai?verb=ListRecords&metadataPrefix=oai_dc){.external}\n\n*Sample response:*\n\n::: {.small}\n```xml\n<OAI-PMH xsi:schemaLocation=\"http://www.openarchives.org/OAI/2.0/ http://www.openarchives.org/OAI/2.0/OAI-PMH.xsd\">\n  <responseDate>2024-07-11T13:25:02Z</responseDate>\n  <request verb=\"ListRecords\" metadataPrefix=\"oai_dc\">http://digiarchiv:8080/oai</request>\n  <ListRecords>\n    <record>\n      <header>\n        <identifier>https://api-test.aiscr.cz/id/C-202013149</identifier>\n        <datestamp>2024-07-11T12:27:13.968Z</datestamp>\n        <setSpec>projekt</setSpec>\n      </header>\n      <metadata>\n        <oai_dc:dc xsi:schemaLocation=\"http://www.openarchives.org/OAI/2.0/oai_dc/ http://www.openarchives.org/OAI/2.0/oai_dc.xsd\">\n          <oai_dc:dc xsi:schemaLocation=\"http://www.openarchives.org/OAI/2.0/oai_dc/ http://www.openarchives.org/OAI/2.0/oai_dc.xsd\">\n            <dc:title xml:lang=\"cs\">AMČR - projekt C-202013149</dc:title>\n            <dc:identifier>C-202013149</dc:identifier>\n            <dc:subject xml:lang=\"cs\">projekt</dc:subject>\n            <dc:description xml:lang=\"cs\">Stav: 6</dc:description>\n            <dc:type>http://base_url/id/HES-000865</dc:type>\n            [...]\n          </oai_dc:dc>\n        </oai_dc:dc>\n      </metadata>\n    </record>\n    <resumptionToken completeListSize=\"859142\" cursor=\"0\">2A997D362431AC3FC670E2680E61D782</resumptionToken>\n  </ListRecords>\n</OAI-PMH>\n```\n:::\n\n### GetRecord\n\n*Query:* [](){.external}\n\n*Sample response:*\n\n::: {.small}\n```xml\n\n```\n:::\n\n### ListSets\n\nVerb `ListSets` lists available sets.\n\n*Query:* [https://api.aiscr.cz/oai?verb=ListSets](https://api.aiscr.cz/oai?verb=ListSets){.external}\n\n*Sample response:*\n\n::: {.small}\n```xml\n<OAI-PMH xsi:schemaLocation=\"http://www.openarchives.org/OAI/2.0/ http://www.openarchives.org/OAI/2.0/OAI-PMH.xsd\">\n  <responseDate>2024-07-11T13:28:01Z</responseDate>\n  <request verb=\"ListSets\">http://digiarchiv:8080/oai</request>\n  <ListSets>\n    <set>\n      <setSpec>projekt</setSpec>\n      <setName>Projekty / Projects</setName>\n      <setDescription>\n        <oai_dc:dc xsi:schemaLocation=\"http://www.openarchives.org/OAI/2.0/oai_dc/ http://www.openarchives.org/OAI/2.0/oai_dc.xsd\">\n          <dc:description xml:lang=\"cs\">\n            Evidenční jednotky terénní činnosti badatelského nebo záchranného rázu evidované již ve fázi přípravy. Pro vymezení projektu je rozhodující podnět k výzkumu a provádějící subjekt (oprávněná organizace), lokalizace a příp. projektová dokumentace. Na projekt zpravidla navazuje jedna či (méně často) více terénních akcí či evidence samostatných nálezů.\n          </dc:description>\n          <dc:description xml:lang=\"en\">\n            Records of field activities of a research or development-led nature recorded in the preparation phase. For the definition of the project, the motivation and the implementing body (authorised organisation), the location and, if applicable, the project documentation are decisive. The project is usually followed by one or (less frequently) more fieldwork, or the recording of individual finds.\n          </dc:description>\n        </oai_dc:dc>\n      </setDescription>\n    </set>\n    [...]\n  </ListSets>\n</OAI-PMH>\n```\n:::\n\n## Query parameters\n\n\n\n::: {.cell tbl-cap='Required and optional query parameters'}\n::: {.cell-output-display}\n\n\n|verb                |required                   |optional                          |\n|:-------------------|:--------------------------|:---------------------------------|\n|Identify            |                           |                                  |\n|ListMetadataFormats |                           |                                  |\n|ListIdentifiers     |metadataPrefix             |set, from, until, resumptionToken |\n|ListRecords         |metadataPrefix             |set, from, until, resumptionToken |\n|GetRecord           |identifier, metadataPrefix |                                  |\n|ListSets            |                           |                                  |\n\n\n:::\n:::\n\n\n\n### Pagination\n\n### Filters\n\n#### Record accessibility\n\n#### Sets\n\n#### Datestamps\n",
    "supporting": [
      "index_files"
    ],
    "filters": [
      "rmarkdown/pagebreak.lua"
    ],
    "includes": {},
    "engineDependencies": {},
    "preserve": null,
    "postProcess": false
  }
}